; Engine configuration file.
; It's best edited using the editor UI and not directly,
; since the parameters that go here are not all obvious.
;
; Format:
;   [section] ; section goes between []
;   param=value ; assign values to parameters

config_version=4

[application]

config/name="Stargazer of Fortune G vertical"
run/main_scene="res://Scenes/Main.tscn"
boot_splash/image="res://Resources/Sprites/bg_menu.png"
boot_splash/bg_color=Color( 0, 0, 0, 1 )
config/icon="res://icon.png"

[autoload]

Global="*res://Scripts/Global.gd"

[debug]

gdscript/completion/autocomplete_setters_and_getters=true
gdscript/warnings/unused_class_variable=true
gdscript/warnings/unsafe_property_access=true
gdscript/warnings/unsafe_method_access=true
gdscript/warnings/unsafe_cast=true
gdscript/warnings/unsafe_call_argument=true

[display]

window/size/width=720
window/size/height=1280
window/dpi/allow_hidpi=true
window/handheld/orientation="sensor_portrait"
window/stretch/mode="2d"
window/stretch/aspect="expand"

[importer_defaults]

texture={
"compress/normal_map": 2,
"detect_3d": false,
"flags/mipmaps": true,
"flags/repeat": 1
}

[input_devices]

pointing/emulate_touch_from_mouse=true

[logging]

file_logging/enable_file_logging.pc=false

[physics]

common/enable_pause_aware_picking=true

[rendering]

2d/snapping/use_gpu_pixel_snap=true
2d/options/ninepatch_mode=0
