{
  "articles": [
    "The instruction includes simple steps that both a beginner and a pro should do: fill out a form where the administration asks to indicate the mail address, phone number, age, contacts for communication;\nagree to the rules and privacy policy;\nconfirm registration and verify your account;\nfill in the \"Personal Information\" section and gain access to your account.\nAfter verification, the user can replenish the balance with the expectation of bonuses (but in addition, you will have to agree to participate in the loyalty program). The welcome reward depends on the specific online casino and can be:\n\n100%, 111%, 115%, 120%, 130%, 150% of the deposit amount or more;\n15, 20, 30, 35, 40 50, 70, 100, 111 or more free spins (credited immediately or \"distributed\" by day).\nAs a rule, welcome offers available under the Ukraine online casino loyalty program are accompanied by wagering conditions. The wager can reach x40 to the amount received. Plus, a gambling establishment has the right to set additional requirements for:\n\nterms of use of the bonus offer;\nthe number of shares and awards;\nslots / slot machines that the client bets on;\namounts and so on.\n Therefore, before agreeing to bonuses and loyalty programs, carefully study all the advantages and disadvantages.",
    "Online casinos in Ukraine today offer the user 3 key types of products:\nslots / slot machines;\nlive casino in real time;\nlotteries / lotomas.\nEach of the categories has subspecies. For example, slot machines are presented in the following types:\none-armed bandits;\ntable games;\ninstant games;\nvideo slots;\nsimulators of board games.\nIn establishments you can find both popular products \"timeless\" and modern novelties of 2020 or 2021:\n\n Queen of Rio;\nRobinson;\nRetro Style;\nBeech of Rest;\nFruit cocktail;\nGarage;\nDwarf;\nRoute of Mexico and dozens of other options.\nThe section with live casinos offers live broadcasts of draws against a real (live, real) dealer. As a rule, online casino Ukraine offers to place bets in real hryvnia, because Demo mode is not available. In the live section, the user chooses his favorite gambling entertainment from real clubs in Las Vegas or Monaco:\nroulette (French, American, European);\npoker (seven-handed, three-card, eight-handed, Omaha, Texas Hold'em);\nbaccarat and its dozens of types;\nblackjack with draws according to different rules;\n21 points;\nmonopoly;\nsik-bo;\nbones (cubes);\nbackgammon, as well as dozens of other options.\nThe user has the right to set the settings for live broadcasts and even set the angle.\nOnline casino in Ukraine is a place where you can relax and unwind. Come in for the thrill!",
    "If you think that playing at online casinos is as easy as flipping a coin, then you are wrong. This is much more complicated.\n\nAlthough the process itself is quite simple, there are some aspects to consider before embarking on your journey into the world of gambling.\n\nIt doesn't take a genius to take the first step. This is, of course, a selection of online casinos that will satisfy all your needs.\n\nIf you think it's a good idea to click on a random online casino banner and open an account there, you are wrong. Actually, this is one of the stupidest things you could ever do. Read on and we'll explain why.",
    "As we mentioned above, choosing the right online casino is not as easy as you think.\n\nThe first thing to consider is whether the casino accepts players from the country in which you reside. As more and more online casinos strive to comply with local laws, many of them have stopped accepting players from different countries for which they do not have a license.\n\nKnowing if the casino accepts players from your country is not the only thing to consider. Another important factor is whether the casino is reliable or not. It totally depends on the reputation and feedback from the players. It is known that even some of the largest online casinos do not withdraw funds so quickly. The casino is the holder of the cash, so if you have any disagreements with them, they usually don't hesitate to manipulate.\n\nThe best way to make sure the casino is fair is to win big and see if you get your money without any problems.\n\nOf course, it's good to know in advance, which is why we are here. We have tested every online casino listed on our site, and if we hear a complaint about it, we will check and reduce its reliability in the event of fraud.\n\nThe list of things to consider when choosing an online casino does not end there. There are many more factors to look out for: game variety, financial strength, payment options, support, and more.\n\nOur goal at casinoorc.com is to help you choose an online casino that suits your personal needs. We strive to make the selection process as fast as possible, which is why we have written a comprehensive yet easy-to-learn guide on how to choose an online casino.",
    "The first thing to do is to be 100% sure that the casino accepts players from your country. There are many countries that do not allow some or all of the online casinos to operate on their territory. This may not apply to all existing casinos, and some governments may not have the authority to restrict gambling establishments.\n\nThe first thing to do is to be 100% sure that the casino accepts players from your country. There are many countries that do not allow some or all of the online casinos to operate on their territory. This may not apply to all existing casinos, and some governments may not have the authority to restrict gambling establishments, such as Curacao. However, more respectable online casinos tend to not accept players from these countries.\n\nIf you are a resident of a country that restricts the activities of certain online casinos or all of them within their borders, then the casino may allow you to register and pay, but when it comes to receiving money, you may get in trouble. Why? Because they may ask you for proof of residence in another country, and if you don't have one, you will have problems.",
    "It is not easy to find out if an online casino is trustworthy before you win a large amount and have to cash it out. It is this event that forms the true picture for the operators. In fact, there are many events where online casinos have cheated their players. This is not uncommon.\n\nThe standard practice for cheating is as follows:\n\nThe casino is unwilling to pay out winnings that are 100% legal.\nTheir excuse might be: \"It was a software bug and it shouldn't have happened. We can compensate 10% of your winnings.\"\nThey ask you to play a certain amount of your winnings before you can withdraw your money.\nThe casino has set ridiculous cash withdrawal limits that have prevented you from cash out for years.\nThey delay withdrawals by weeks or months.\nThe casino is using any other way they can think of.\nThe casino offers games that have been modified and have a lower theoretical profit for the player than stated.\nThe casino indicates abuse of bonuses and does not want to pay out the winnings.\nThat is why you should choose a casino with a good reputation. To make it easier for you, we regularly check the reputation of all our casinos listed on Casinoorc.com and update them if necessary. If we detect fraud, this casino will be removed from our site.\n\nCasinoorc.com tip: Just because there are no complaints about a casino does not necessarily mean that it is fair. It takes a while for a new casino to start cheating because a big win might not happen very soon. The same goes for old reputable casinos. All of them may have a couple of complaints, although in fact they are 100% honest and comply with ethical principles.",
    "All available online casinos have some kind of license. In other words, they are regulated by the governments of one of the countries in the world. For it to work in a specific region, the country must allow online gambling. Licenses can be issued by country or jurisdiction. The country (Great Britain, Estonia, Belgium) does this in order to collect taxes from its citizens who gamble and the jurisdiction (Gibraltar, Malta, Curacao) simply allows casinos to operate all over the world.\n\nIf you have been abused by a casino that does not want to pay out your winnings, the only thing to do is contact the regulator that was the original issuer of the license. This is where the importance of the country / jurisdiction that has granted the license lies. A respectable regulator usually listens to both sides, and if the player was right, he forces the operator to make amends. It can even lead to the loss of the casino license.\n\nSome regulators don't even have a contact address or form for you to contact them. For example, Panama, Anjouan, Costa Rica, Seychelles and Seychelles are good examples of an unreliable regulator. If this concerns a casino that does not want to pay you money, then you have actually lost the battle.\n\nYou may have a chance to achieve justice in casinos regulated by Curacao or Gibraltar, but this is never 100% guaranteed.\n\nWhen it comes to casinos licensed from Malta, the Isle of Man or Alderney, you're in a pretty good position because these regulators stick to their word and if you're right, you get your money.\n\nWhat are the earnings compared to your bankroll?\nNot many people see casino earnings as a sign of trust, but we do believe it is. Why? Consider a casino with income less than the possible jackpot in the average NETENT slot game. Will they have the funds to pay you if you win? Probably not.",
    "What games does the online casino offer?\nEach of us probably has a favorite game. And, most likely, when choosing, we are looking for a casino with this game. The online casino list Casinoorc.com allows you to filter casinos by provider or game type. This way, you can easily find those that offer, for example baccarat.\n\nWhether you prefer Roulette, Baccarat, Blackjack or any other game, we are more than confident that our filtering system will be useful to you.\n\nWhat is the language of the site? Finding a casino in Russian is important\nCasinos usually try to translate their site into many languages. This is done in order to reach the widest possible audience. If you find a casino in your native language, then having an assistant speaking the same language with you is also a big plus.\n\nYou don't need to be fluent in English to understand the terms and conditions of bonuses or casino games. Translated casinos make it much easier for you to understand what is allowed and what is not when it comes to a certain promotion or something else.\n\nFinding a casino in Russian can be difficult, but of course, all the casinos on our list are in Russian.\n\nHow professional is the support?\nSince the operating conditions of online casinos differ, it is very important that you have the opportunity to request more information about such things. This is where the professional support of a specialist is important.\n\nUsually, the faster the support, the better. Solving your question or problem in a matter of minutes is much better than a few days. Therefore, we cannot stress enough the importance of 24/7 support. Ideally in the form of an online chat. If the support only works via email or a phone that never answers, that's a bad call and it might be better to choose a different site.\n\nHow good are the bonuses and their terms?\nBonuses and promotions are in the main online casino marketing strategy to attract and retain players. The correct use of bonuses can certainly increase the player's retention time and at the same time reduce the cost of his or her hobby. Some guys can even make a living using only bonuses. These guys are called bonus hunters or intruders and they are usually customers that the casino doesn't want to see.\n\nTo prevent misuse of promotions, casinos have come up with various rules or conditions that you must comply with when using them. If you violate these rules, the casino may rightfully void your bonus and confiscate your winnings.\n\nIt is of course worth taking your time to read all the bonus terms so that you don't end up in a position you don't want to be in.\n\nUser experience - how easy is it to use?\nThe next big advantage is ease of use. Nobody wants to waste time looking for their favorite casino game or waiting for a page to load. The time is passing when casinos with poor design and user experience become successful.\n\nUsually, the more casinos, the better the site. This is true in most cases, but as with everything else, there are some exceptions to this rule. Over the past couple of years, a new generation of online casinos has emerged. Online casinos that use user experience and design as a weapon and take it into account when developing their product. These casinos are not very big yet, but they will be. Because innovation has always prevailed and the client will always love what is done with his wishes in mind.\n\nIf the casino looks like shit, then it probably is. Stay away from casinos that are outdated, slow or simply have an ugly design. They probably have a low budget and a weak or absent development team. We are not saying that you should judge a casino 100% by its appearance, but this is definitely one of the criteria that should be taken into account."
  ]
}
